module_12
…
return_df <- left_join(pred, species, by = c("species" = "alpha_code"))

return_df2 <- left_join(nests, species, by = c("species" = "alpha_code"))

assign_sp_names <- function(df, species_df) {
  joined_data <- left_join(df, species_df, by = c("species" = "alpha_code"))
  return(joined_data)
}

assign_sp_names(pred, species)

## # A tibble: 2,337 x 13
##     year site  observer date       start_time end_time plot  stake species
##    <dbl> <chr> <chr>    <date>          <dbl>    <dbl> <chr> <chr> <chr>  
##  1  2003 barr  <NA>     2003-06-08         NA       NA brw1  <NA>  glgu   
##  2  2003 barr  <NA>     2003-06-08         NA       NA brw1  <NA>  poja   
##  3  2003 barr  <NA>     2003-06-15         NA       NA brw1  <NA>  glgu   
##  4  2003 barr  <NA>     2003-06-15         NA       NA brw1  <NA>  poja   
##  5  2003 barr  <NA>     2003-06-23         NA       NA brw1  <NA>  none   
##  6  2003 barr  <NA>     2003-06-08         NA       NA brw2  <NA>  glgu   
##  7  2003 barr  <NA>     2003-06-08         NA       NA brw2  <NA>  poja   
##  8  2003 barr  <NA>     2003-06-15         NA       NA brw2  <NA>  glgu   
##  9  2003 barr  <NA>     2003-06-23         NA       NA brw2  <NA>  paja   
## 10  2003 barr  <NA>     2003-06-08         NA       NA brw3  <NA>  glgu   
## #  with 2,327 more rows, and 4 more variables: distance <chr>, count <dbl>,
## #   comments <chr>, common_name <chr>
…
